cocotb/voxel_bin_core_tb_0525.txt
====================================================
 Running DUT=voxel_bin_core with CONFIG=voxel_default
====================================================
make[1]: Entering directory '/mnt/c/Users/jason/Documents/microTheia'
mkdir -p cocotb/sim_build/voxel_bin_core
/usr/local/bin/iverilog -o cocotb/sim_build/voxel_bin_core/sim.vvp -s voxel_bin_core -g2012 -Pvoxel_bin_core.CLK_FREQ_HZ=64000000 -Pvoxel_bin_core.WINDOW_MS=1000 -Pvoxel_bin_core.GRID_SIZE=16 -Pvoxel_bin_core.NUM_BINS=8 -Pvoxel_bin_core.READOUT_BINS=8 -Pvoxel_bin_core.COUNTER_BITS=16 -Pvoxel_bin_core.FIFO_DEPTH=256 -Pvoxel_bin_core.DATA_WIDTH=32 -Pvoxel_bin_core.SENSOR_WIDTH=320 -Pvoxel_bin_core.SENSOR_HEIGHT=320 -Pvoxel_bin_core.REQUIRE_TIME_HIGH=1 -Pvoxel_bin_core.WEIGHT_BITS=8 -Pvoxel_bin_core.NUM_CLASSES=4 -Pvoxel_bin_core.SCORE_BITS=36 -f cocotb/sim_build/voxel_bin_core/cmds.f -s cocotb_iverilog_dump  src/chip_core.sv src/control_fsm.sv src/evt2_decoder.sv src/sram_wrapper.sv src/input_fifo.sv src/selectable_debug.sv src/spi_wrapper.sv src/soc.sv src/voxel_bin_core.sv src/voxel_binning.sv src/voxel_gesture_classifier.sv src/voxel_mac_engine.sv third_party/verilog_spi/spi_module.v third_party/verilog_spi/pos_edge_det.v third_party/verilog_spi/neg_edge_det.v  cocotb/sim_build/voxel_bin_core/cocotb_iverilog_dump.v
rm -f results.xml
COCOTB_TEST_MODULES=voxel_bin_core_tb COCOTB_TESTCASE= COCOTB_TEST_FILTER= COCOTB_TOPLEVEL=voxel_bin_core TOPLEVEL_LANG=verilog \
         /usr/local/bin/vvp -M /home/jasonwaseq/.local/lib/python3.12/site-packages/cocotb/libs -m libcocotbvpi_icarus   cocotb/sim_build/voxel_bin_core/sim.vvp -fst  
     -.--ns INFO     gpi                                ..mbed/gpi_embed.cpp:93   in _embed_init_python              Using Python 3.12.4 interpreter at /usr/bin/python3
     -.--ns INFO     gpi                                ../gpi/GpiCommon.cpp:79   in gpi_print_registered_impl       VPI registered
     0.00ns INFO     cocotb                             Running on Icarus Verilog version 14.0 (devel)
     0.00ns INFO     cocotb                             Seeding Python random module with 1779825575
     0.00ns INFO     cocotb                             Initialized cocotb v2.0.1 from /home/jasonwaseq/.local/lib/python3.12/site-packages/cocotb
     0.00ns INFO     cocotb.regression                  pytest not found, install it to enable better AssertionError messages
     0.00ns INFO     cocotb                             Running tests
     0.00ns INFO     cocotb.regression                  running voxel_bin_core_tb.test_voxel_bin_core_end_to_end_golden (1/27)
[TEST START] test_voxel_bin_core_end_to_end_golden
1146112.41ns WARNING  py.warnings                        /mnt/c/Users/jason/Documents/microTheia/cocotb/util/test_logging.py:42: DeprecationWarning: The 'units' argument has been renamed to 'unit'.
                                                           sim_time_ns = float(get_sim_time(units="ns"))
[TEST PASS] test_voxel_bin_core_end_to_end_golden @ 1146112.409 ns
1146112.41ns INFO     cocotb.regression                  voxel_bin_core_tb.test_voxel_bin_core_end_to_end_golden passed
1146112.41ns INFO     cocotb.regression                  running voxel_bin_core_tb.test_empty_window_produces_no_gesture (2/27)
                                                             No CD events -> all-zero features -> all scores zero -> no gesture fires.
[TEST START] test_empty_window_produces_no_gesture
[TEST PASS] test_empty_window_produces_no_gesture @ 1254814.679 ns
1254814.68ns INFO     cocotb.regression                  voxel_bin_core_tb.test_empty_window_produces_no_gesture passed
1254814.68ns INFO     cocotb.regression                  running voxel_bin_core_tb.test_reset_mid_pipeline_recovers_cleanly (3/27)
                                                             Assert rst while pipeline is active; verify clean restart.
[TEST START] test_reset_mid_pipeline_recovers_cleanly
[TEST PASS] test_reset_mid_pipeline_recovers_cleanly @ 1283988.422 ns
1283988.42ns INFO     cocotb.regression                  voxel_bin_core_tb.test_reset_mid_pipeline_recovers_cleanly passed
1283988.42ns INFO     cocotb.regression                  running voxel_bin_core_tb.test_debug_event_count_tracks_accepted_words (4/27)
                                                             debug_event_count must track accepted words relative to setup baseline.
[TEST START] test_debug_event_count_tracks_accepted_words
[TEST PASS] test_debug_event_count_tracks_accepted_words @ 1315404.496 ns
1315404.50ns INFO     cocotb.regression                  voxel_bin_core_tb.test_debug_event_count_tracks_accepted_words passed
1315404.50ns INFO     cocotb.regression                  running voxel_bin_core_tb.test_fifo_backpressure_no_lost_events (5/27)
                                                             Burst of events: even if FIFO momentarily fills, no accepted events are lost.
[TEST START] test_fifo_backpressure_no_lost_events
[TEST PASS] test_fifo_backpressure_no_lost_events @ 1339616.984 ns
1339616.98ns INFO     cocotb.regression                  voxel_bin_core_tb.test_fifo_backpressure_no_lost_events passed
1339616.98ns INFO     cocotb.regression                  running voxel_bin_core_tb.test_core_timestamp_boundary_binning_matches_golden (6/27)
                                                             Decoded event timestamps, not host-forced cycles, define bin boundaries.
[TEST START] test_core_timestamp_boundary_binning_matches_golden
[TEST PASS] test_core_timestamp_boundary_binning_matches_golden @ 1448397.384 ns
1448397.38ns INFO     cocotb.regression                  voxel_bin_core_tb.test_core_timestamp_boundary_binning_matches_golden passed
1448397.38ns INFO     cocotb.regression                  running voxel_bin_core_tb.test_sustained_region_fires_gesture (7/27)
                                                             Drive a single spatial region for many bins; gesture_valid must fire on every passing window.
[TEST START] test_sustained_region_fires_gesture
[TEST PASS] test_sustained_region_fires_gesture @ 1698155.556 ns
1698155.56ns INFO     cocotb.regression                  voxel_bin_core_tb.test_sustained_region_fires_gesture passed
1698155.56ns INFO     cocotb.regression                  running voxel_bin_core_tb.test_decoder_events_match_model_exactly (8/27)
                                                             Verify that every decoded (x, y, polarity, timestamp) tuple matches the model.
[TEST START] test_decoder_events_match_model_exactly
[TEST PASS] test_decoder_events_match_model_exactly @ 1720383.542 ns
1720383.54ns INFO     cocotb.regression                  voxel_bin_core_tb.test_decoder_events_match_model_exactly passed
1720383.54ns INFO     cocotb.regression                  running voxel_bin_core_tb.test_score_model_validates_classifications (9/27)
                                                             ScoreModel independently verifies every DUT class_gesture/class_pass output.
[TEST START] test_score_model_validates_classifications
1957930.00ns INFO     test                               [window 0] model scores: D=1030 L=904 R=568 U=1216  winner=Up margin=186  nonzero_features=146/2048 total_count=240
2022012.22ns INFO     test                               [window 1] model scores: D=1277 L=1205 R=901 U=1108  winner=Down margin=72  nonzero_features=148/2048 total_count=240
2086094.45ns INFO     test                               [window 2] model scores: D=1163 L=776 R=950 U=922  winner=Down margin=213  nonzero_features=150/2048 total_count=240
2150176.67ns INFO     test                               [window 3] model scores: D=1103 L=636 R=1105 U=1036  winner=Right margin=2  nonzero_features=149/2048 total_count=240
2214258.90ns INFO     test                               [window 4] model scores: D=1508 L=896 R=977 U=1252  winner=Down margin=256  nonzero_features=152/2048 total_count=240
2278341.12ns INFO     test                               [window 5] model scores: D=1113 L=621 R=976 U=967  winner=Down margin=137  nonzero_features=148/2048 total_count=240
2342423.35ns INFO     test                               [window 6] model scores: D=554 L=1118 R=984 U=659  winner=Left margin=134  nonzero_features=152/2048 total_count=240
2406505.58ns INFO     test                               [window 7] model scores: D=807 L=1277 R=1210 U=1036  winner=Left margin=67  nonzero_features=153/2048 total_count=240
2470587.80ns INFO     test                               [window 8] model scores: D=945 L=1193 R=1390 U=745  winner=Right margin=197  nonzero_features=158/2048 total_count=240
2534670.03ns INFO     test                               [window 9] model scores: D=849 L=1182 R=1914 U=820  winner=Right margin=732  nonzero_features=156/2048 total_count=240
2598752.25ns INFO     test                               [window 10] model scores: D=982 L=1011 R=1585 U=1012  winner=Right margin=573  nonzero_features=155/2048 total_count=240
2662834.48ns INFO     test                               [window 11] model scores: D=1107 L=939 R=843 U=1055  winner=Down margin=52  nonzero_features=161/2048 total_count=240
2726916.71ns INFO     test                               [window 12] model scores: D=1149 L=1291 R=1102 U=1067  winner=Left margin=142  nonzero_features=164/2048 total_count=240
2790998.93ns INFO     test                               [window 13] model scores: D=1728 L=1152 R=1278 U=1409  winner=Down margin=319  nonzero_features=165/2048 total_count=240
2855081.16ns INFO     test                               [window 14] model scores: D=1271 L=1064 R=1049 U=1064  winner=Down margin=207  nonzero_features=163/2048 total_count=240
2919163.38ns INFO     test                               [window 15] model scores: D=1206 L=1160 R=1016 U=782  winner=Down margin=46  nonzero_features=164/2048 total_count=240
2983245.61ns INFO     test                               [window 16] model scores: D=1316 L=1011 R=1223 U=1200  winner=Down margin=93  nonzero_features=159/2048 total_count=240
[TEST PASS] test_score_model_validates_classifications @ 3015396.106 ns
3015396.11ns INFO     cocotb.regression                  voxel_bin_core_tb.test_score_model_validates_classifications passed
3015396.11ns INFO     cocotb.regression                  running voxel_bin_core_tb.test_wrong_gesture_trajectory_no_false_positive (10/27)
                                                             Uniform random events: DUT and ScoreModel must agree on every classification.
[TEST START] test_wrong_gesture_trajectory_no_false_positive
3253255.08ns INFO     test                               [window 0] model scores: D=930 L=1227 R=1031 U=1627  winner=Up margin=400  nonzero_features=246/2048 total_count=255
3317337.31ns INFO     test                               [window 1] model scores: D=1049 L=1523 R=1422 U=1666  winner=Up margin=143  nonzero_features=246/2048 total_count=256
[TEST PASS] test_wrong_gesture_trajectory_no_false_positive @ 3349487.800 ns
3349487.80ns INFO     cocotb.regression                  voxel_bin_core_tb.test_wrong_gesture_trajectory_no_false_positive passed
3349487.80ns INFO     cocotb.regression                  running voxel_bin_core_tb.test_bin_file_gesture_0 (11/27)
                                                             Stream bin file 0 into the DUT and report classifications.
[TEST START] test_bin_file_gesture_0
3514639.00ns INFO     test                               [wave_down_sun_test1] Streaming /mnt/c/Users/jason/Documents/microTheia/EVT2_gesture_set/test_set/wave_down_sun_test1.bin (mode=timestamp_forced) ...
13412491.17ns INFO     test                               [window 0] model scores: D=450011 L=424265 R=533838 U=482895  winner=Right margin=50943  nonzero_features=1984/2048 total_count=186619
13476573.39ns INFO     test                               [window 1] model scores: D=191807 L=144544 R=150772 U=169137  winner=Down margin=22670  nonzero_features=1737/2048 total_count=174011
13540655.62ns INFO     test                               [window 2] model scores: D=167193 L=129983 R=138872 U=152416  winner=Down margin=14777  nonzero_features=1487/2048 total_count=155418
13604737.85ns INFO     test                               [window 3] model scores: D=147374 L=119256 R=123723 U=131978  winner=Down margin=15396  nonzero_features=1240/2048 total_count=120179
13668820.07ns INFO     test                               [window 4] model scores: D=133390 L=104600 R=106100 U=113715  winner=Down margin=19675  nonzero_features=993/2048 total_count=78110
13732902.30ns INFO     test                               [window 5] model scores: D=104539 L=81369 R=77962 U=87948  winner=Down margin=16591  nonzero_features=743/2048 total_count=46329
13796984.52ns INFO     test                               [window 6] model scores: D=77264 L=63488 R=54785 U=68306  winner=Down margin=8958  nonzero_features=494/2048 total_count=28227
13861066.75ns INFO     test                               [window 7] model scores: D=52432 L=39428 R=31657 U=45502  winner=Down margin=6930  nonzero_features=246/2048 total_count=13537
13893217.24ns INFO     test                               [wave_down_sun_test1] Completed windows: 8, Accepted words: 249121
13893217.24ns INFO     test                               [wave_down_sun_test1] DUT gesture outputs (1 total):
13893217.24ns INFO     test                                 gesture=Down (class=0, confidence=1)
13893217.24ns INFO     test                               [wave_down_sun_test1] dominant=Down ratio=1.000 class_hist=(Down:1)
13893217.24ns INFO     test                               [wave_down_sun_test1] expected=Down match=1/1 ratio=1.000
[TEST PASS] test_bin_file_gesture_0 @ 13893217.244 ns
13893217.24ns INFO     cocotb.regression                  voxel_bin_core_tb.test_bin_file_gesture_0 passed
13893217.24ns INFO     cocotb.regression                  running voxel_bin_core_tb.test_bin_file_gesture_1 (12/27)
                                                              Stream bin file 1 into the DUT and report classifications.
[TEST START] test_bin_file_gesture_1
14058368.44ns INFO     test                               [wave_left_sun_test1] Streaming /mnt/c/Users/jason/Documents/microTheia/EVT2_gesture_set/test_set/wave_left_sun_test1.bin (mode=timestamp_forced) ...
28459649.44ns INFO     test                               [window 0] model scores: D=935440 L=1018645 R=1241395 U=1382673  winner=Up margin=141278  nonzero_features=1974/2048 total_count=283362
28523731.66ns INFO     test                               [window 1] model scores: D=168167 L=200209 R=185288 U=194065  winner=Left margin=6144  nonzero_features=1731/2048 total_count=271345
28587813.89ns INFO     test                               [window 2] model scores: D=150523 L=188561 R=170093 U=162594  winner=Left margin=18468  nonzero_features=1485/2048 total_count=258559
28651896.11ns INFO     test                               [window 3] model scores: D=135028 L=173108 R=155762 U=143208  winner=Left margin=17346  nonzero_features=1239/2048 total_count=240559
28715978.34ns INFO     test                               [window 4] model scores: D=120534 L=147465 R=127129 U=121649  winner=Left margin=20336  nonzero_features=991/2048 total_count=207574
28780060.57ns INFO     test                               [window 5] model scores: D=102124 L=133005 R=93466 U=131459  winner=Left margin=1546  nonzero_features=743/2048 total_count=153633
28844142.79ns INFO     test                               [window 6] model scores: D=80642 L=97941 R=66468 U=79258  winner=Left margin=17299  nonzero_features=498/2048 total_count=87611
28908225.02ns INFO     test                               [window 7] model scores: D=49552 L=69107 R=34917 U=51892  winner=Left margin=17215  nonzero_features=249/2048 total_count=34465
28940375.51ns INFO     test                               [wave_left_sun_test1] Completed windows: 8, Accepted words: 345864
28940375.51ns INFO     test                               [wave_left_sun_test1] DUT gesture outputs (6 total):
28940375.51ns INFO     test                                 gesture=Up (class=3, confidence=1)
28940375.51ns INFO     test                                 gesture=Left (class=1, confidence=1)
28940375.51ns INFO     test                                 gesture=Left (class=1, confidence=1)
28940375.51ns INFO     test                                 gesture=Left (class=1, confidence=1)
28940375.51ns INFO     test                                 gesture=Left (class=1, confidence=1)
28940375.51ns INFO     test                                 gesture=Left (class=1, confidence=1)
28940375.51ns INFO     test                               [wave_left_sun_test1] dominant=Left ratio=0.833 class_hist=(Left:5 Up:1)
28940375.51ns INFO     test                               [wave_left_sun_test1] expected=Left match=5/6 ratio=0.833
[TEST PASS] test_bin_file_gesture_1 @ 28940375.514 ns
28940375.51ns INFO     cocotb.regression                  voxel_bin_core_tb.test_bin_file_gesture_1 passed
28940375.51ns INFO     cocotb.regression                  running voxel_bin_core_tb.test_bin_file_gesture_2 (13/27)
                                                              Stream bin file 2 into the DUT and report classifications.
[TEST START] test_bin_file_gesture_2
29105526.71ns INFO     test                               [wave_right_sun_test1] Streaming /mnt/c/Users/jason/Documents/microTheia/EVT2_gesture_set/test_set/wave_right_sun_test1.bin (mode=timestamp_forced) ...
42033400.91ns INFO     test                               [window 0] model scores: D=573189 L=650827 R=723316 U=510528  winner=Right margin=72489  nonzero_features=2007/2048 total_count=252101
42097483.14ns INFO     test                               [window 1] model scores: D=175794 L=171585 R=212474 U=183168  winner=Right margin=29306  nonzero_features=1757/2048 total_count=239021
42161565.37ns INFO     test                               [window 2] model scores: D=158877 L=171063 R=182494 U=158984  winner=Right margin=11431  nonzero_features=1507/2048 total_count=222701
42225647.59ns INFO     test                               [window 3] model scores: D=144066 L=141625 R=158786 U=146675  winner=Right margin=12111  nonzero_features=1256/2048 total_count=179520
42289729.82ns INFO     test                               [window 4] model scores: D=121093 L=115927 R=146612 U=130431  winner=Right margin=16181  nonzero_features=1003/2048 total_count=128403
42353812.05ns INFO     test                               [window 5] model scores: D=97152 L=94985 R=125384 U=98764  winner=Right margin=26620  nonzero_features=753/2048 total_count=81685
42417894.27ns INFO     test                               [window 6] model scores: D=79901 L=69420 R=98550 U=76108  winner=Right margin=18649  nonzero_features=503/2048 total_count=45054
42481976.50ns INFO     test                               [window 7] model scores: D=51406 L=42600 R=70746 U=48207  winner=Right margin=19340  nonzero_features=254/2048 total_count=20123
42514126.99ns INFO     test                               [wave_right_sun_test1] Completed windows: 8, Accepted words: 314600
42514126.99ns INFO     test                               [wave_right_sun_test1] DUT gesture outputs (1 total):
42514126.99ns INFO     test                                 gesture=Right (class=2, confidence=1)
42514126.99ns INFO     test                               [wave_right_sun_test1] dominant=Right ratio=1.000 class_hist=(Right:1)
42514126.99ns INFO     test                               [wave_right_sun_test1] expected=Right match=1/1 ratio=1.000
[TEST PASS] test_bin_file_gesture_2 @ 42514126.992 ns
42514126.99ns INFO     cocotb.regression                  voxel_bin_core_tb.test_bin_file_gesture_2 passed
42514126.99ns INFO     cocotb.regression                  running voxel_bin_core_tb.test_bin_file_gesture_3 (14/27)
                                                              Stream bin file 3 into the DUT and report classifications.
[TEST START] test_bin_file_gesture_3
42679278.19ns INFO     test                               [wave_up_sun_test1] Streaming /mnt/c/Users/jason/Documents/microTheia/EVT2_gesture_set/test_set/wave_up_sun_test1.bin (mode=timestamp_forced) ...
53900777.57ns INFO     test                               [window 0] model scores: D=510641 L=494948 R=532832 U=494367  winner=Right margin=22191  nonzero_features=1990/2048 total_count=214875
53964859.79ns INFO     test                               [window 1] model scores: D=187638 L=154208 R=159632 U=205308  winner=Up margin=17670  nonzero_features=1741/2048 total_count=202980
54028942.02ns INFO     test                               [window 2] model scores: D=173476 L=135055 R=144952 U=175570  winner=Up margin=2094  nonzero_features=1493/2048 total_count=188569
54093024.24ns INFO     test                               [window 3] model scores: D=143847 L=130866 R=134910 U=150780  winner=Up margin=6933  nonzero_features=1244/2048 total_count=159050
54157106.47ns INFO     test                               [window 4] model scores: D=117782 L=108381 R=105325 U=146044  winner=Up margin=28262  nonzero_features=995/2048 total_count=100043
54221188.70ns INFO     test                               [window 5] model scores: D=95498 L=89756 R=82060 U=109621  winner=Up margin=14123  nonzero_features=745/2048 total_count=52466
54285270.92ns INFO     test                               [window 6] model scores: D=74668 L=66435 R=57996 U=81803  winner=Up margin=7135  nonzero_features=496/2048 total_count=29898
54349353.15ns INFO     test                               [window 7] model scores: D=47767 L=41132 R=32937 U=54149  winner=Up margin=6382  nonzero_features=248/2048 total_count=14346
54381503.64ns INFO     test                               [wave_up_sun_test1] Completed windows: 8, Accepted words: 277377
54381503.64ns INFO     test                               [wave_up_sun_test1] DUT gesture outputs (1 total):
54381503.64ns INFO     test                                 gesture=Up (class=3, confidence=1)
54381503.64ns INFO     test                               [wave_up_sun_test1] dominant=Up ratio=1.000 class_hist=(Up:1)
54381503.64ns INFO     test                               [wave_up_sun_test1] expected=Up match=1/1 ratio=1.000
[TEST PASS] test_bin_file_gesture_3 @ 54381503.644 ns
54381503.64ns INFO     cocotb.regression                  voxel_bin_core_tb.test_bin_file_gesture_3 passed
54381503.64ns INFO     cocotb.regression                  running voxel_bin_core_tb.test_bin_file_timing_replay_ab (15/27)
                                                              A/B timing investigation: timestamp-forced vs clock-driven replay.
[TEST START] test_bin_file_timing_replay_ab
54546654.84ns INFO     test                               [wave_down_sun_test1-forced] Streaming /mnt/c/Users/jason/Documents/microTheia/EVT2_gesture_set/test_set/wave_down_sun_test1.bin (mode=timestamp_forced) ...
64444507.01ns INFO     test                               [window 0] model scores: D=450011 L=424265 R=533838 U=482895  winner=Right margin=50943  nonzero_features=1984/2048 total_count=186619
64508589.24ns INFO     test                               [window 1] model scores: D=191807 L=144544 R=150772 U=169137  winner=Down margin=22670  nonzero_features=1737/2048 total_count=174011
64572671.46ns INFO     test                               [window 2] model scores: D=167193 L=129983 R=138872 U=152416  winner=Down margin=14777  nonzero_features=1487/2048 total_count=155418
64636753.69ns INFO     test                               [window 3] model scores: D=147374 L=119256 R=123723 U=131978  winner=Down margin=15396  nonzero_features=1240/2048 total_count=120179
64700835.91ns INFO     test                               [window 4] model scores: D=133390 L=104600 R=106100 U=113715  winner=Down margin=19675  nonzero_features=993/2048 total_count=78110
64764918.14ns INFO     test                               [window 5] model scores: D=104539 L=81369 R=77962 U=87948  winner=Down margin=16591  nonzero_features=743/2048 total_count=46329
64829000.37ns INFO     test                               [window 6] model scores: D=77264 L=63488 R=54785 U=68306  winner=Down margin=8958  nonzero_features=494/2048 total_count=28227
64893082.59ns INFO     test                               [window 7] model scores: D=52432 L=39428 R=31657 U=45502  winner=Down margin=6930  nonzero_features=246/2048 total_count=13537
64925233.09ns INFO     test                               [wave_down_sun_test1-forced] Completed windows: 8, Accepted words: 249121
64925233.09ns INFO     test                               [wave_down_sun_test1-forced] DUT gesture outputs (1 total):
64925233.09ns INFO     test                                 gesture=Down (class=0, confidence=1)
64925233.09ns INFO     test                               [wave_down_sun_test1-forced] dominant=Down ratio=1.000 class_hist=(Down:1)
64925233.09ns INFO     test                               [wave_down_sun_test1-forced] expected=Down match=1/1 ratio=1.000
65090376.47ns INFO     test                               [wave_down_sun_test1-clock] Streaming /mnt/c/Users/jason/Documents/microTheia/EVT2_gesture_set/test_set/wave_down_sun_test1.bin (mode=clock_driven) ...
74988228.64ns INFO     test                               [window 0] model scores: D=450011 L=424265 R=533838 U=482895  winner=Right margin=50943  nonzero_features=1984/2048 total_count=186619
75052310.87ns INFO     test                               [window 1] model scores: D=191807 L=144544 R=150772 U=169137  winner=Down margin=22670  nonzero_features=1737/2048 total_count=174011
75116393.09ns INFO     test                               [window 2] model scores: D=167193 L=129983 R=138872 U=152416  winner=Down margin=14777  nonzero_features=1487/2048 total_count=155418
75180475.32ns INFO     test                               [window 3] model scores: D=147374 L=119256 R=123723 U=131978  winner=Down margin=15396  nonzero_features=1240/2048 total_count=120179
75244557.55ns INFO     test                               [window 4] model scores: D=133390 L=104600 R=106100 U=113715  winner=Down margin=19675  nonzero_features=993/2048 total_count=78110
75308639.77ns INFO     test                               [window 5] model scores: D=104539 L=81369 R=77962 U=87948  winner=Down margin=16591  nonzero_features=743/2048 total_count=46329
75372722.00ns INFO     test                               [window 6] model scores: D=77264 L=63488 R=54785 U=68306  winner=Down margin=8958  nonzero_features=494/2048 total_count=28227
75436804.22ns INFO     test                               [window 7] model scores: D=52432 L=39428 R=31657 U=45502  winner=Down margin=6930  nonzero_features=246/2048 total_count=13537
75468954.72ns INFO     test                               [wave_down_sun_test1-clock] Completed windows: 8, Accepted words: 249121
75468954.72ns INFO     test                               [wave_down_sun_test1-clock] DUT gesture outputs (1 total):
75468954.72ns INFO     test                                 gesture=Down (class=0, confidence=1)
75468954.72ns INFO     test                               [wave_down_sun_test1-clock] dominant=Down ratio=1.000 class_hist=(Down:1)
75468954.72ns INFO     test                               [wave_down_sun_test1-clock] expected=Down match=1/1 ratio=1.000
75468954.72ns INFO     test                               [wave_down_sun_test1] A/B: forced_windows=8 clock_windows=8 seq_diff=0/1
75634098.10ns INFO     test                               [wave_left_sun_test1-forced] Streaming /mnt/c/Users/jason/Documents/microTheia/EVT2_gesture_set/test_set/wave_left_sun_test1.bin (mode=timestamp_forced) ...
90035379.10ns INFO     test                               [window 0] model scores: D=935440 L=1018645 R=1241395 U=1382673  winner=Up margin=141278  nonzero_features=1974/2048 total_count=283362
90099461.32ns INFO     test                               [window 1] model scores: D=168167 L=200209 R=185288 U=194065  winner=Left margin=6144  nonzero_features=1731/2048 total_count=271345
90163543.55ns INFO     test                               [window 2] model scores: D=150523 L=188561 R=170093 U=162594  winner=Left margin=18468  nonzero_features=1485/2048 total_count=258559
90227625.78ns INFO     test                               [window 3] model scores: D=135028 L=173108 R=155762 U=143208  winner=Left margin=17346  nonzero_features=1239/2048 total_count=240559
90291708.00ns INFO     test                               [window 4] model scores: D=120534 L=147465 R=127129 U=121649  winner=Left margin=20336  nonzero_features=991/2048 total_count=207574
90355790.23ns INFO     test                               [window 5] model scores: D=102124 L=133005 R=93466 U=131459  winner=Left margin=1546  nonzero_features=743/2048 total_count=153633
90419872.45ns INFO     test                               [window 6] model scores: D=80642 L=97941 R=66468 U=79258  winner=Left margin=17299  nonzero_features=498/2048 total_count=87611
90483954.68ns INFO     test                               [window 7] model scores: D=49552 L=69107 R=34917 U=51892  winner=Left margin=17215  nonzero_features=249/2048 total_count=34465
90516105.17ns INFO     test                               [wave_left_sun_test1-forced] Completed windows: 8, Accepted words: 345864
90516105.17ns INFO     test                               [wave_left_sun_test1-forced] DUT gesture outputs (6 total):
90516105.17ns INFO     test                                 gesture=Up (class=3, confidence=1)
90516105.17ns INFO     test                                 gesture=Left (class=1, confidence=1)
90516105.17ns INFO     test                                 gesture=Left (class=1, confidence=1)
90516105.17ns INFO     test                                 gesture=Left (class=1, confidence=1)
90516105.17ns INFO     test                                 gesture=Left (class=1, confidence=1)
90516105.17ns INFO     test                                 gesture=Left (class=1, confidence=1)
90516105.17ns INFO     test                               [wave_left_sun_test1-forced] dominant=Left ratio=0.833 class_hist=(Left:5 Up:1)
90516105.17ns INFO     test                               [wave_left_sun_test1-forced] expected=Left match=5/6 ratio=0.833
90681248.56ns INFO     test                               [wave_left_sun_test1-clock] Streaming /mnt/c/Users/jason/Documents/microTheia/EVT2_gesture_set/test_set/wave_left_sun_test1.bin (mode=clock_driven) ...
105082529.55ns INFO     test                               [window 0] model scores: D=935440 L=1018645 R=1241395 U=1382673  winner=Up margin=141278  nonzero_features=1974/2048 total_count=283362
105146611.78ns INFO     test                               [window 1] model scores: D=168167 L=200209 R=185288 U=194065  winner=Left margin=6144  nonzero_features=1731/2048 total_count=271345
105210694.00ns INFO     test                               [window 2] model scores: D=150523 L=188561 R=170093 U=162594  winner=Left margin=18468  nonzero_features=1485/2048 total_count=258559
105274776.23ns INFO     test                               [window 3] model scores: D=135028 L=173108 R=155762 U=143208  winner=Left margin=17346  nonzero_features=1239/2048 total_count=240559
105338858.46ns INFO     test                               [window 4] model scores: D=120534 L=147465 R=127129 U=121649  winner=Left margin=20336  nonzero_features=991/2048 total_count=207574
105402940.68ns INFO     test                               [window 5] model scores: D=102124 L=133005 R=93466 U=131459  winner=Left margin=1546  nonzero_features=743/2048 total_count=153633
105467022.91ns INFO     test                               [window 6] model scores: D=80642 L=97941 R=66468 U=79258  winner=Left margin=17299  nonzero_features=498/2048 total_count=87611
105531105.14ns INFO     test                               [window 7] model scores: D=49552 L=69107 R=34917 U=51892  winner=Left margin=17215  nonzero_features=249/2048 total_count=34465
105563255.63ns INFO     test                               [wave_left_sun_test1-clock] Completed windows: 8, Accepted words: 345864
105563255.63ns INFO     test                               [wave_left_sun_test1-clock] DUT gesture outputs (6 total):
105563255.63ns INFO     test                                 gesture=Up (class=3, confidence=1)
105563255.63ns INFO     test                                 gesture=Left (class=1, confidence=1)
105563255.63ns INFO     test                                 gesture=Left (class=1, confidence=1)
105563255.63ns INFO     test                                 gesture=Left (class=1, confidence=1)
105563255.63ns INFO     test                                 gesture=Left (class=1, confidence=1)
105563255.63ns INFO     test                                 gesture=Left (class=1, confidence=1)
105563255.63ns INFO     test                               [wave_left_sun_test1-clock] dominant=Left ratio=0.833 class_hist=(Left:5 Up:1)
105563255.63ns INFO     test                               [wave_left_sun_test1-clock] expected=Left match=5/6 ratio=0.833
105563255.63ns INFO     test                               [wave_left_sun_test1] A/B: forced_windows=8 clock_windows=8 seq_diff=0/6
105728399.01ns INFO     test                               [wave_right_sun_test1-forced] Streaming /mnt/c/Users/jason/Documents/microTheia/EVT2_gesture_set/test_set/wave_right_sun_test1.bin (mode=timestamp_forced) ...
118656273.22ns INFO     test                               [window 0] model scores: D=573189 L=650827 R=723316 U=510528  winner=Right margin=72489  nonzero_features=2007/2048 total_count=252101
118720355.44ns INFO     test                               [window 1] model scores: D=175794 L=171585 R=212474 U=183168  winner=Right margin=29306  nonzero_features=1757/2048 total_count=239021
118784437.67ns INFO     test                               [window 2] model scores: D=158877 L=171063 R=182494 U=158984  winner=Right margin=11431  nonzero_features=1507/2048 total_count=222701
118848519.89ns INFO     test                               [window 3] model scores: D=144066 L=141625 R=158786 U=146675  winner=Right margin=12111  nonzero_features=1256/2048 total_count=179520
118912602.12ns INFO     test                               [window 4] model scores: D=121093 L=115927 R=146612 U=130431  winner=Right margin=16181  nonzero_features=1003/2048 total_count=128403
118976684.35ns INFO     test                               [window 5] model scores: D=97152 L=94985 R=125384 U=98764  winner=Right margin=26620  nonzero_features=753/2048 total_count=81685
119040766.57ns INFO     test                               [window 6] model scores: D=79901 L=69420 R=98550 U=76108  winner=Right margin=18649  nonzero_features=503/2048 total_count=45054
119104848.80ns INFO     test                               [window 7] model scores: D=51406 L=42600 R=70746 U=48207  winner=Right margin=19340  nonzero_features=254/2048 total_count=20123
119136999.29ns INFO     test                               [wave_right_sun_test1-forced] Completed windows: 8, Accepted words: 314600
119136999.29ns INFO     test                               [wave_right_sun_test1-forced] DUT gesture outputs (1 total):
119136999.29ns INFO     test                                 gesture=Right (class=2, confidence=1)
119136999.29ns INFO     test                               [wave_right_sun_test1-forced] dominant=Right ratio=1.000 class_hist=(Right:1)
119136999.29ns INFO     test                               [wave_right_sun_test1-forced] expected=Right match=1/1 ratio=1.000
119302142.67ns INFO     test                               [wave_right_sun_test1-clock] Streaming /mnt/c/Users/jason/Documents/microTheia/EVT2_gesture_set/test_set/wave_right_sun_test1.bin (mode=clock_driven) ...
132230016.88ns INFO     test                               [window 0] model scores: D=573189 L=650827 R=723316 U=510528  winner=Right margin=72489  nonzero_features=2007/2048 total_count=252101
132294099.11ns INFO     test                               [window 1] model scores: D=175794 L=171585 R=212474 U=183168  winner=Right margin=29306  nonzero_features=1757/2048 total_count=239021
132358181.33ns INFO     test                               [window 2] model scores: D=158877 L=171063 R=182494 U=158984  winner=Right margin=11431  nonzero_features=1507/2048 total_count=222701
132422263.56ns INFO     test                               [window 3] model scores: D=144066 L=141625 R=158786 U=146675  winner=Right margin=12111  nonzero_features=1256/2048 total_count=179520
132486345.78ns INFO     test                               [window 4] model scores: D=121093 L=115927 R=146612 U=130431  winner=Right margin=16181  nonzero_features=1003/2048 total_count=128403
132550428.01ns INFO     test                               [window 5] model scores: D=97152 L=94985 R=125384 U=98764  winner=Right margin=26620  nonzero_features=753/2048 total_count=81685
132614510.24ns INFO     test                               [window 6] model scores: D=79901 L=69420 R=98550 U=76108  winner=Right margin=18649  nonzero_features=503/2048 total_count=45054
